Exploring the BRFSS data
…
We can see a slight pattern in the data where there is a positive linear relationship between the variables below 7 hours of sleep and negative relation above the mean sleep time

How does gender sex affect these variables ?

rs1f_sleep_gender = rs1f %>% 
                    group_by(sex, sleptim1) %>%
                    summarise(avg_fruit_intake=mean(fruit_per_day))
rs1f_sleep_gender                       

## # A tibble: 36 x 3
## # Groups:   sex [?]
##       sex sleptim1 avg_fruit_intake
##    <fctr>    <int>            <dbl>
##  1   Male        1        1.0916215
##  2   Male        2        0.8250748
##  3   Male        3        0.7950662
##  4   Male        4        0.8018544
##  5   Male        5        0.7990218
##  6   Male        6        0.8241396
##  7   Male        7        0.9042576
##  8   Male        8        0.8761468
##  9   Male        9        0.8758238
## 10   Male       10        0.8112197
## # ... with 26 more rows
…
We can see a linear positive relationship between average veggies intake to sleep hours below the mean sleep time and negative above the mean sleep time.

How does gender sex affect these variables ?

rs1v_sleep_gender = rs1v %>% 
                    group_by(sex, sleptim1) %>%
                    summarise(avg_veg_intake=mean(veg_per_day))
rs1v_sleep_gender                       

## # A tibble: 36 x 3
## # Groups:   sex [?]
##       sex sleptim1 avg_veg_intake
##    <fctr>    <int>          <dbl>
##  1   Male        1      0.4493239
##  2   Male        2      0.4101774
##  3   Male        3      0.4251140
##  4   Male        4      0.4684199
##  5   Male        5      0.4705434
##  6   Male        6      0.4848204
##  7   Male        7      0.5162709
##  8   Male        8      0.5035144
##  9   Male        9      0.4905388
## 10   Male       10      0.4468116
## # ... with 26 more rows
…
